R Interface to FACTS on Unix-Like Systems • rfacts
…
out
#> [1] "/tmp/RtmpFv78Hj/file427b6fd72e42"

head(get_csv_files(out))
#> [1] "/tmp/RtmpFv78Hj/file427b6fd72e42/contin/acc1_drop1_resp1_params/patients00001.csv"          
#> [2] "/tmp/RtmpFv78Hj/file427b6fd72e42/contin/acc1_drop1_resp1_params/patients00002.csv"          
#> [3] "/tmp/RtmpFv78Hj/file427b6fd72e42/contin/acc1_drop1_resp1_params/weeks_freq_ignore_00001.csv"
#> [4] "/tmp/RtmpFv78Hj/file427b6fd72e42/contin/acc1_drop1_resp1_params/weeks_freq_ignore_00002.csv"
#> [5] "/tmp/RtmpFv78Hj/file427b6fd72e42/contin/acc1_drop1_resp1_params/weeks_freq_locf_00001.csv"  
#> [6] "/tmp/RtmpFv78Hj/file427b6fd72e42/contin/acc1_drop1_resp1_params/weeks_freq_locf_00002.csv"

Use read_patients() to read and aggregate all the patients*.csv files. rfacts has several such functions, including read_weeks() and read_mcmc().

read_patients(out)
#> # A tibble: 2,400 x 15
#>    facts_file facts_scenario facts_sim facts_id facts_output facts_csv
#>    <chr>      <chr>              <int> <chr>    <chr>        <chr>    
#>  1 contin.fa… acc1_drop1_re…         1 file427… patients     /tmp/Rtm…
#>  2 contin.fa… acc1_drop1_re…         1 file427… patients     /tmp/Rtm…
#>  3 contin.fa… acc1_drop1_re…         1 file427… patients     /tmp/Rtm…
#>  4 contin.fa… acc1_drop1_re…         1 file427… patients     /tmp/Rtm…
#>  5 contin.fa… acc1_drop1_re…         1 file427… patients     /tmp/Rtm…
#>  6 contin.fa… acc1_drop1_re…         1 file427… patients     /tmp/Rtm…
#>  7 contin.fa… acc1_drop1_re…         1 file427… patients     /tmp/Rtm…
#>  8 contin.fa… acc1_drop1_re…         1 file427… patients     /tmp/Rtm…
#>  9 contin.fa… acc1_drop1_re…         1 file427… patients     /tmp/Rtm…
#> 10 contin.fa… acc1_drop1_re…         1 file427… patients     /tmp/Rtm…
#> # … with 2,390 more rows, and 9 more variables: facts_header <chr>,
#> #   subject <int>, region <int>, date <dbl>, dose <int>, lastvisit <int>,
#> #   dropout <int>, baseline <lgl>, visit_1 <dbl>

The simulation process

run_facts() has two sequential stages:

run_flfll(): generate the *.param files and the folder structure for the FACTS Linux engines.

run_engine(): execute the instructions in the *.param files to conduct trial simulations and produce CSV output.

out <- run_flfll(facts_file, verbose = FALSE)
run_engine(facts_file, param_files = out, n_sims = 4, verbose = FALSE)
read_patients(out)
#> # A tibble: 4,800 x 15
#>    facts_file facts_scenario facts_sim facts_id facts_output facts_csv
#>    <chr>      <chr>              <int> <chr>    <chr>        <chr>    
#>  1 contin.fa… acc1_drop1_re…         1 file427… patients     /tmp/Rtm…
#>  2 contin.fa… acc1_drop1_re…         1 file427… patients     /tmp/Rtm…
#>  3 contin.fa… acc1_drop1_re…         1 file427… patients     /tmp/Rtm…
#>  4 contin.fa… acc1_drop1_re…         1 file427… patients     /tmp/Rtm…
#>  5 contin.fa… acc1_drop1_re…         1 file427… patients     /tmp/Rtm…
#>  6 contin.fa… acc1_drop1_re…         1 file427… patients     /tmp/Rtm…
#>  7 contin.fa… acc1_drop1_re…         1 file427… patients     /tmp/Rtm…
#>  8 contin.fa… acc1_drop1_re…         1 file427… patients     /tmp/Rtm…
#>  9 contin.fa… acc1_drop1_re…         1 file427… patients     /tmp/Rtm…
#> 10 contin.fa… acc1_drop1_re…         1 file427… patients     /tmp/Rtm…
#> # … with 4,790 more rows, and 9 more variables: facts_header <chr>,
#> #   subject <int>, region <int>, date <dbl>, dose <int>, lastvisit <int>,
#> #   dropout <int>, baseline <lgl>, visit_1 <dbl>

run_engine() automatically detects the Linux engine required for your FACTS file. If you know the engine in advance, you can use a specific engine function such as run_engine_contin() or run_engine_dichot().

out <- run_flfll(facts_file, verbose = FALSE)
run_engine_contin(param_files = out, n_sims = 4, verbose = FALSE)
read_patients(out)
#> # A tibble: 4,800 x 15
#>    facts_file facts_scenario facts_sim facts_id facts_output facts_csv
#>    <chr>      <chr>              <int> <chr>    <chr>        <chr>    
#>  1 contin.fa… acc1_drop1_re…         1 file427… patients     /tmp/Rtm…
#>  2 contin.fa… acc1_drop1_re…         1 file427… patients     /tmp/Rtm…
#>  3 contin.fa… acc1_drop1_re…         1 file427… patients     /tmp/Rtm…
#>  4 contin.fa… acc1_drop1_re…         1 file427… patients     /tmp/Rtm…
#>  5 contin.fa… acc1_drop1_re…         1 file427… patients     /tmp/Rtm…
#>  6 contin.fa… acc1_drop1_re…         1 file427… patients     /tmp/Rtm…
#>  7 contin.fa… acc1_drop1_re…         1 file427… patients     /tmp/Rtm…
#>  8 contin.fa… acc1_drop1_re…         1 file427… patients     /tmp/Rtm…
#>  9 contin.fa… acc1_drop1_re…         1 file427… patients     /tmp/Rtm…
#> 10 contin.fa… acc1_drop1_re…         1 file427… patients     /tmp/Rtm…
#> # … with 4,790 more rows, and 9 more variables: facts_header <chr>,
#> #   subject <int>, region <int>, date <dbl>, dose <int>, lastvisit <int>,
#> #   dropout <int>, baseline <lgl>, visit_1 <dbl>
…
# Each scenario has its own folder with internal parameter files.
scenarios <- get_param_dirs(param_files) # not in rfacts <= 1.0.0
scenarios
#> [1] "/tmp/RtmpFv78Hj/file427b68486ae6/contin/acc1_drop1_resp1_params"
#> [2] "/tmp/RtmpFv78Hj/file427b68486ae6/contin/acc1_drop1_resp2_params"
#> [3] "/tmp/RtmpFv78Hj/file427b68486ae6/contin/acc2_drop1_resp1_params"
#> [4] "/tmp/RtmpFv78Hj/file427b68486ae6/contin/acc2_drop1_resp2_params"

# Let's pick one of those scenarios and run the simulations.
scenario <- scenarios[1]
run_engine_contin(scenario, n_sims = 2, verbose = FALSE)
read_patients(scenario)
#> # A tibble: 600 x 15
#>    facts_file facts_scenario facts_sim facts_id facts_output facts_csv
#>    <chr>      <chr>              <int> <chr>    <chr>        <chr>    
#>  1 contin.fa… acc1_drop1_re…         1 file427… patients     /tmp/Rtm…
#>  2 contin.fa… acc1_drop1_re…         1 file427… patients     /tmp/Rtm…
#>  3 contin.fa… acc1_drop1_re…         1 file427… patients     /tmp/Rtm…
#>  4 contin.fa… acc1_drop1_re…         1 file427… patients     /tmp/Rtm…
#>  5 contin.fa… acc1_drop1_re…         1 file427… patients     /tmp/Rtm…
#>  6 contin.fa… acc1_drop1_re…         1 file427… patients     /tmp/Rtm…
#>  7 contin.fa… acc1_drop1_re…         1 file427… patients     /tmp/Rtm…
#>  8 contin.fa… acc1_drop1_re…         1 file427… patients     /tmp/Rtm…
#>  9 contin.fa… acc1_drop1_re…         1 file427… patients     /tmp/Rtm…
#> 10 contin.fa… acc1_drop1_re…         1 file427… patients     /tmp/Rtm…
#> # … with 590 more rows, and 9 more variables: facts_header <chr>,
#> #   subject <int>, region <int>, date <dbl>, dose <int>, lastvisit <int>,
#> #   dropout <int>, baseline <lgl>, visit_1 <dbl>
…
  # Return aggregated patients files.
  read_patients(out) # Reads fast because `out` is a tempfile().
}

At this point, we should test this function locally without parallel computing.

library(dplyr)

# All the patients files were named patients00001.csv,
# so do not trust the facts_sim column.
# For data post-processing, use the facts_id column instead.
lapply(seq_len(4), sim_once, param_files = param_files) %>%
  bind_rows()
#> # A tibble: 4,800 x 15
#>    facts_file facts_scenario facts_sim facts_id facts_output facts_csv
#>    <chr>      <chr>              <int> <chr>    <chr>        <chr>    
#>  1 contin.fa… acc1_drop1_re…         1 file427… patients     /tmp/Rtm…
#>  2 contin.fa… acc1_drop1_re…         1 file427… patients     /tmp/Rtm…
#>  3 contin.fa… acc1_drop1_re…         1 file427… patients     /tmp/Rtm…
#>  4 contin.fa… acc1_drop1_re…         1 file427… patients     /tmp/Rtm…
#>  5 contin.fa… acc1_drop1_re…         1 file427… patients     /tmp/Rtm…
#>  6 contin.fa… acc1_drop1_re…         1 file427… patients     /tmp/Rtm…
#>  7 contin.fa… acc1_drop1_re…         1 file427… patients     /tmp/Rtm…
#>  8 contin.fa… acc1_drop1_re…         1 file427… patients     /tmp/Rtm…
#>  9 contin.fa… acc1_drop1_re…         1 file427… patients     /tmp/Rtm…
#> 10 contin.fa… acc1_drop1_re…         1 file427… patients     /tmp/Rtm…
#> # … with 4,790 more rows, and 9 more variables: facts_header <chr>,
#> #   subject <int>, region <int>, date <dbl>, dose <int>, lastvisit <int>,
#> #   dropout <int>, baseline <lgl>, visit_1 <dbl>
…
